SNP_clusters
…
cnames <- data.frame(position = gsub("X", "", colnames(snp_new)[4:37])) %>% 
  left_join(loc_info, by = "position")

colnames(snp_new)[4:37] <- cnames$coln

snp_num <- snp_new %>% mutate(across(ND2_1154:Ori_19482, ~ as.numeric(as.factor(.x)) - 1))

# gene info
snp_gene <- read.delim("data/snp-gene.txt")

colnames(snp_num[4:37]) %>% as_tibble() %>% 
  left_join(snp_gene %>% mutate(position = as.character(position)), 
            by = c("value" = "position"))

# A tibble: 34 × 8
   value          FST gene  substitution maj_A AA_A  maj_B AA_B 
                        
 1 ND2_1154        NA                   
 2 CoI_1512        NA                   
 3 CoI_1836        NA                   
 4 CoI_2262        NA                   
 5 CoI_2661        NA                   
 6 CoII_3385       NA                   
 7 CoII_3583       NA                   
 8 ATPase6_4247    NA                   
 9 ATPase6_4616    NA                   
10 CoIII_5396      NA                   
# ℹ 24 more rows
…
#dev.off()

pca.cor <- prcomp(snp_num %>% select(ND2_1154:Ori_19482))

broom::tidy(pca.cor, 'pcs') %>% 
  mutate(percent = percent * 100, cumulative = cumulative * 100)

# A tibble: 27 × 4
      PC  std.dev percent cumulative
                
 1     1 2.45e+ 0  82.8         82.8
 2     2 8.15e- 1   9.19        92.0
 3     3 4.57e- 1   2.89        94.9
 4     4 4.02e- 1   2.23        97.1
 5     5 3.65e- 1   1.84        99.0
 6     6 2.16e- 1   0.642       99.6
 7     7 1.65e- 1   0.375      100  
 8     8 5.12e-16   0          100  
 9     9 2.43e-16   0          100  
10    10 2.43e-16   0          100  
# ℹ 17 more rows
…
#dev.off()

pca.cor <- prcomp(snp_num %>% select(`1154`:`17400`))

broom::tidy(pca.cor, 'pcs') %>% 
  mutate(percent = percent * 100, cumulative = cumulative * 100)

# A tibble: 27 × 4
      PC  std.dev percent cumulative
                
 1     1 2.30e+ 0  77.3         77.3
 2     2 8.19e- 1   9.85        87.2
 3     3 6.36e- 1   5.94        93.1
 4     4 5.50e- 1   4.43        97.6
 5     5 2.36e- 1   0.819       98.4
 6     6 2.24e- 1   0.734       99.1
 7     7 2.07e- 1   0.627       99.7
 8     8 1.35e- 1   0.267      100  
 9     9 6.50e-16   0          100  
10    10 2.26e-16   0          100  
# ℹ 17 more rows
…
